<svg version="1.1" id="kvartplan_m_a3" xmlns="http://www.w3.org/2000/svg" xmlns:xlink="http://www.w3.org/1999/xlink"
	 x="0px" y="0px" viewBox="0 0 795.8 608.6" style="enable-background:new 0 0 795.8 608.6;" xml:space="preserve">
	 <style type="text/css">
	 	.kvart{opacity:0.5;fill:transparent;}
	 </style>
<image style="overflow:visible;" width="3316" height="2536" id="kvartplan_m_a3_img" xlink:href="img/kvartplan_m_a3.jpg"  transform="matrix(0.24 0 0 0.24 0 0)">
</image>
<polygon class="kvart kv16" points="151.3,300.2 280.2,300.2 280.2,533.5 182,533.5 182,491 101.8,491 
	101.8,307 151.3,307 "/>
<polygon class="kvart kv17" points="2.6,50.8 273.5,50.8 273.5,241.7 151.3,241.7 151.3,307 101.8,307 
	101.8,491 88.5,491 88.5,493.5 25.8,493.5 25.8,490.8 2.6,490.8 "/>
<polygon class="kvart kv18" points="273.5,50.8 271.1,50.8 271.1,8.7 360,8.7 360,2.5 466,2.5 466,241.7 
	273.5,241.7 "/>
<polygon class="kvart kv13" points="601.1,50.6 792.6,50.6 792.6,491.3 705.4,491.3 705.4,300.3 
	601.1,300.3 "/>
<polygon class="kvart kv15" points="280.2,300.2 454.4,300.2 454.4,484.5 465.8,484.5 465.8,533.5 
	280.2,533.5 "/>
<polygon class="kvart kv14" points="454.4,300.2 705.4,300.2 705.4,491.3 613,491.3 613,533.5 
	465.8,533.5 465.8,484.5 454.4,484.5 "/>
</svg>
