<?xml version="1.0" encoding="utf-8"?>
<!-- Generator: Adobe Illustrator 21.0.0, SVG Export Plug-In . SVG Version: 6.00 Build 0)  -->
<svg version="1.1" id="Layer_1" xmlns="http://www.w3.org/2000/svg" xmlns:xlink="http://www.w3.org/1999/xlink" x="0px" y="0px"
	 viewBox="0 0 640 640" style="fill: #999;" xml:space="preserve">
<g id="vk_x5F_intl">
	<g>
		<path d="M320.3,0.1C496.9,0.1,640,143.2,640,319.7c0,176.5-143.1,319.7-319.7,319.7S0.7,496.3,0.7,319.7
			C0.7,143.2,143.8,0.1,320.3,0.1L320.3,0.1z M301.2,469.9H330c0,0,8.7-1,13.1-5.7c4.1-4.4,4-12.6,4-12.6s-0.6-38.6,17.4-44.3
			c17.7-5.6,40.4,37.3,64.4,53.8c18.2,12.5,32,9.8,32,9.8l64.3-0.9c0,0,33.6-2.1,17.7-28.5c-1.3-2.2-9.3-19.6-47.8-55.3
			c-40.3-37.4-34.9-31.4,13.7-96.1c29.6-39.4,41.4-63.5,37.7-73.8c-3.5-9.8-25.3-7.2-25.3-7.2l-72.4,0.4c0,0-5.4-0.7-9.4,1.6
			c-3.9,2.3-6.4,7.8-6.4,7.8s-11.5,30.5-26.7,56.5c-32.2,54.8-45.1,57.6-50.4,54.2c-12.3-7.9-9.2-31.8-9.2-48.8
			c0-53.1,8-75.2-15.7-80.9c-7.9-1.9-13.7-3.2-33.8-3.4c-25.8-0.3-47.7,0.1-60.1,6.1c-8.2,4-14.6,13-10.7,13.5
			c4.8,0.6,15.6,2.9,21.4,10.7c7.4,10.1,7.2,32.8,7.2,32.8s4.3,62.5-10,70.2c-9.8,5.3-23.1-5.5-51.9-55.2
			c-14.7-25.4-25.8-53.6-25.8-53.6s-2.1-5.3-6-8.1c-4.6-3.4-11.1-4.5-11.1-4.5l-68.8,0.4c0,0-10.3,0.3-14.1,4.8
			c-3.4,4-0.3,12.3-0.3,12.3s53.9,126,114.9,189.6C237.7,473.7,301.2,469.9,301.2,469.9L301.2,469.9z"/>
	</g>
</g>
</svg>
