<?xml version="1.0" encoding="utf-8"?>
<!-- Generator: Adobe Illustrator 21.0.0, SVG Export Plug-In . SVG Version: 6.00 Build 0)  -->
<svg version="1.1" id="Layer_1" xmlns="http://www.w3.org/2000/svg" xmlns:xlink="http://www.w3.org/1999/xlink" x="0px" y="0px"
	 viewBox="0 0 640 640" style="fill: #999;" xml:space="preserve">
<g id="vk_x5F_intl">
	<g id="odnoklassniki_straight">
		<g>
			<path d="M429.7,19.5c166,60.6,251.4,244.3,190.8,410.2c-60.6,166-244.3,251.4-410.2,190.8C44.2,559.9-41.2,376.2,19.4,210.3
				C80,44.3,263.7-41.1,429.7,19.5L429.7,19.5z M274.1,399.4c-19.3,27.6-96.2,73-59,107c31,28.4,64.3-19.9,104.7-59.6
				c14.5,12.2,31,30,44.8,44.2c16.1,16.5,38.1,37.3,60.2,16.3c31.9-30.3-19-66.3-58.3-106.5c10.3-6.5,95.5-23.2,72.1-68.4
				c-27.3-53-68.4,34.4-165.7-0.6c-25.7-9.3-39.9-27.2-62.4-12.1c-18.8,12.5-16.9,39.2-2.1,51.3C223.3,383,255.2,394.5,274.1,399.4
				L274.1,399.4z M343.8,95.5c-53.2-11-117.6,19.5-129.7,84.6c-26.8,143.4,189.9,184.7,215.4,40.7
				C438.9,167.6,406.5,108.5,343.8,95.5L343.8,95.5z M320.3,157.8c-59.3,2.2-57.8,87.9,1.7,89.2
				C380.4,248.2,382.8,155.5,320.3,157.8L320.3,157.8z"/>
		</g>
	</g>
</g>
</svg>
