<svg version="1.1" id="kvartplan_v5" xmlns="http://www.w3.org/2000/svg" xmlns:xlink="http://www.w3.org/1999/xlink" x="0px"
	 y="0px" viewBox="0 0 1524 625.9" style="enable-background:new 0 0 1524 625.9;" xml:space="preserve">
<style type="text/css">
    .kvart{opacity:0.5;fill:transparent;}
</style>
<image style="overflow:visible;" width="6350" height="2608" id="kvartplan_v5_img" xlink:href="img/kvartplan_v5.jpg"  transform="matrix(0.24 0 0 0.24 0 0)">
</image>
<polygon class="kvart kv195" points="1195.9,55 1180.1,55 1180.1,246.8 1335.8,246.4 1335.8,317.4 
	1520.2,317.4 1520.2,13.4 1284.9,13.4 1285.1,17.6 1195.9,17.5 "/>
<polygon class="kvart kv196" points="1476.1,317.4 1476.1,495.8 1380.5,495.8 1380.9,538.3 1285.5,538.3 
	1285.1,483.4 1287.6,483.4 1287.6,304.6 1335.8,304.6 1335.8,317.4 "/>
<polygon class="kvart kv197" points="1287.6,304.6 1109.1,304.6 1109.5,538.3 1285.5,538.3 1285.1,483.4 
	1287.6,483.4 "/>
<polygon class="kvart kv170" points="394.2,538.3 133.5,538.3 133.5,311.8 270.8,311.8 270.8,304.6 
	394.2,304.6 "/>
<polygon class="kvart kv198" points="1109.1,304.6 841.5,304.6 841.5,495.8 843.8,495.8 844.2,538.3 
	1109.5,538.3 "/>
<polygon class="kvart kv169" points="662.4,311.6 525,311.6 525,304.7 394.2,304.7 394.2,495.8 
	394.2,538.3 397.1,538.3 662.4,538.3 "/>
<polygon class="kvart kv199" points="841.5,304.6 985.3,304.6 985.3,246.4 1045.1,246.4 1045.1,55.5 
	939.5,55.5 939.5,12.9 751.9,12.9 751.9,311.1 751.9,495.7 841.5,495.7 "/>
<polygon class="kvart kv171" points="330.8,55.5 330.7,246.7 270.8,246.7 270.8,311.8 133.5,311.8 
	133.5,495.7 34.4,495.7 34.4,311.1 34.4,13 225.3,13 225.3,17.2 314.7,17.2 314.7,55.5 "/>
<polygon class="kvart kv168" points="662.4,311.6 525,311.6 525,246.4 464.9,246.4 464.9,55.5 570.4,55.5 
	570.4,12.9 751.9,12.9 751.9,311.1 751.9,495.7 662.4,495.7 "/>
</svg>
